{
  "project_info": {
    "project_number": "231093499664",
    "firebase_url": "https://quiz-test-ee054-default-rtdb.europe-west1.firebasedatabase.app",
    "project_id": "quiz-test-ee054",
    "storage_bucket": "quiz-test-ee054.appspot.com"
  },
  "client": [
    {
      "client_info": {
        "mobilesdk_app_id": "1:231093499664:android:5c4d09eb5cf499a432d795",
        "android_client_info": {
          "package_name": "com.mygdx.game"
        }
      },
      "oauth_client": [
        {
          "client_id": "231093499664-95dukcjd8nrhs62psfpadv2ouio00s28.apps.googleusercontent.com",
          "client_type": 3
        }
      ],
      "api_key": [
        {
          "current_key": "AIzaSyDXcyhqsi4bk3sHgvPzOTdGBtCKt1eNutM"
        }
      ],
      "services": {
        "appinvite_service": {
          "other_platform_oauth_client": [
            {
              "client_id": "231093499664-95dukcjd8nrhs62psfpadv2ouio00s28.apps.googleusercontent.com",
              "client_type": 3
            }
          ]
        }
      }
    },
    {
      "client_info": {
        "mobilesdk_app_id": "1:231093499664:android:43e7f5317879e91732d795",
        "android_client_info": {
          "package_name": "ntnu.tdt4240.shoutout"
        }
      },
      "oauth_client": [
        {
          "client_id": "231093499664-95dukcjd8nrhs62psfpadv2ouio00s28.apps.googleusercontent.com",
          "client_type": 3
        }
      ],
      "api_key": [
        {
          "current_key": "AIzaSyDXcyhqsi4bk3sHgvPzOTdGBtCKt1eNutM"
        }
      ],
      "services": {
        "appinvite_service": {
          "other_platform_oauth_client": [
            {
              "client_id": "231093499664-95dukcjd8nrhs62psfpadv2ouio00s28.apps.googleusercontent.com",
              "client_type": 3
            }
          ]
        }
      }
    }
  ],
  "configuration_version": "1"
}